Case study: School Shootings in the U.S.
…
shooting_data %<>%
  dplyr::rename("State_abb" = State) %>%
  dplyr::left_join(state_df, by = c("State_abb" = "State_abb"))

Reformatting dates:

shooting_data %<>%
  mutate(Date = lubridate::mdy(Date)) %>%
  mutate(Date_year = lubridate::year(Date))

shooting_data %>%
  select(Date, Date_year)

# A tibble: 1,556 × 2
   Date       Date_year
   <date>         <dbl>
 1 1970-01-05      1970
 2 1970-01-05      1970
 3 1970-01-05      1970
 4 1970-02-06      1970
 5 1970-03-23      1970
 6 1970-04-15      1970
 7 1970-04-22      1970
 8 1970-05-08      1970
 9 1970-05-15      1970
10 1970-08-28      1970
# ℹ 1,546 more rows
…
#shooting_data %>%
  #count(`Suicide (or attempted suicide) by Shooter (Y/N)`)

shooting_data %<>%
  mutate(dplyr::across(.cols = matches("Y/N|Specific|Random|Pre-planned"),
         ~ dplyr::case_when(. == "Yes" ~ TRUE,
                          . == "No" ~ FALSE,
                          . == "Y" ~ TRUE,
                          . == "N" ~ FALSE,
                          . == "Officer Involved" ~ TRUE)))

shooting_data %>%
  select(matches("Y/N|Specific|Random|Pre-planned"))

# A tibble: 1,556 × 13
   `Targeted Specific Victim(s)` `Random Victims` `Bullied (Y/N/ N/A)`
   <lgl>                         <lgl>            <lgl>               
 1 FALSE                         TRUE             FALSE               
 2 FALSE                         TRUE             FALSE               
 3 TRUE                          FALSE            FALSE               
 4 TRUE                          FALSE            FALSE               
 5 FALSE                         FALSE            FALSE               
 6 TRUE                          TRUE             FALSE               
 7 TRUE                          FALSE            FALSE               
 8 TRUE                          FALSE            FALSE               
 9 FALSE                         TRUE             NA                  
10 TRUE                          FALSE            FALSE               
# ℹ 1,546 more rows
# ℹ 10 more variables: `Domestic Violence (Y/N)` <lgl>,
#   `Suicide (Shooter was only victim) Y/N/ N/A` <lgl>,
#   `Suicide (shot self immediately following initial shootings) Y/N/ N/A` <lgl>,
#   `Suicide (e.g., shot self at end of incident - time period between first shots and suicide, different location, when confronted by police) Y/N/ N/A` <lgl>,
#   `Suicide (or attempted suicide) by Shooter (Y/N)` <lgl>,
#   `Pre-planned school attack` <lgl>, `During School Day (Y/N)` <lgl>, …
…
per_year_md_cum

# A tibble: 52 × 4
# Groups:   State [1]
   State    Date_year id        events
   <chr>        <dbl> <fct>      <dbl>
 1 Maryland      1971 Shootings      5
 2 Maryland      1971 Deaths         1
 3 Maryland      1972 Shootings      7
 4 Maryland      1972 Deaths         1
 5 Maryland      1974 Shootings      8
 6 Maryland      1974 Deaths         1
 7 Maryland      1976 Shootings      9
 8 Maryland      1976 Deaths         1
 9 Maryland      1979 Shootings     10
10 Maryland      1979 Deaths         1
# ℹ 42 more rows
…
